{"Features":{"Weighted NL Terms":{"Creation Context":{"OS":"Linux","javac":"javac 1.8.0_121"},"Generation Date":"2017-03-17T16:40:03+00:00","Version":"1.0","Tags":[],"Feature":{"Version":"1.0","Type":"Weighted Terms","Content":{"quick":0.7071067811865475,"sort":0.7071067811865475}}},"Comments":{"Creation Context":{"OS":"Linux","javac":"javac 1.8.0_121"},"Generation Date":"2017-03-17T16:39:59+00:00","Version":"1.0","Tags":[],"Feature":{"Version":"1.0","Type":"Comments","Content":[{"Start":{"Line":2,"Column":1},"End":{"Line":4,"Column":4},"Delimiter Embeded":true,"Textual Representation":"/**\n\t * Quick sort\n\t */"}]}},"ClassSource":{"Creation Context":{"OS":"Linux","javac":"javac 1.8.0_121"},"Generation Date":"2017-03-17T16:39:59+00:00","Version":"1.0","Tags":[],"Feature":{"Version":"1.0","Type":"Text","Content":"public class QSort {\n  void qsort(  int[] a,  int l,  int r){\n    int i, j, x, w;\n    i=l;\n    j=r;\n    x=a[(l + r) / 2];\n    while (i <= j) {\n      while (a[i] < x)       i=i + 1;\n      while (x < a[j])       j=j - 1;\n      if (i <= j) {\n        w=a[i];\n        a[i]=a[j];\n        a[j]=w;\n        i=i + 1;\n        j=j - 1;\n      }\n    }\n    if (l < j)     qsort(a,l,j);\n    if (i < r)     qsort(a,i,r);\n  }\n}\n"}},"CUSource":{"Creation Context":{"OS":"Linux","javac":"javac 1.8.0_121"},"Generation Date":"2017-03-17T16:39:59+00:00","Version":"1.0","Tags":[],"Feature":{"Version":"1.0","Type":"Text","Content":"public class QSort {\n  void qsort(  int[] a,  int l,  int r){\n    int i, j, x, w;\n    i=l;\n    j=r;\n    x=a[(l + r) / 2];\n    while (i <= j) {\n      while (a[i] < x)       i=i + 1;\n      while (x < a[j])       j=j - 1;\n      if (i <= j) {\n        w=a[i];\n        a[i]=a[j];\n        a[j]=w;\n        i=i + 1;\n        j=j - 1;\n      }\n    }\n    if (l < j)     qsort(a,l,j);\n    if (i < r)     qsort(a,i,r);\n  }\n}\n"}},"Names":{"Creation Context":{"OS":"Linux","javac":"javac 1.8.0_121"},"Generation Date":"2017-03-17T16:39:59+00:00","Version":"1.0","Tags":[],"Feature":{"Version":"1.0","Type":"Bag Of Words","Content":["qsort","a","i","j","l","r","w","x"]}},"Skeleton":{"Creation Context":{"OS":"Linux","javac":"javac 1.8.0_121"},"Generation Date":"2017-03-17T16:39:59+00:00","Version":"1.0","Tags":[],"Feature":{"Version":"1.0","Type":"Text","Content":"(seq (loop (seq (loop ())(loop ())(cond ())))(cond ())(cond ()))"}}},"Language":"Java","Generation Date":"2017-03-17T16:40:03+00:00","Textual Representation":"void qsort(int[] a,int l,int r){\n  int i, j, x, w;\n  i=l;\n  j=r;\n  x=a[(l + r) / 2];\n  while (i <= j) {\n    while (a[i] < x)     i=i + 1;\n    while (x < a[j])     j=j - 1;\n    if (i <= j) {\n      w=a[i];\n      a[i]=a[j];\n      a[j]=w;\n      i=i + 1;\n      j=j - 1;\n    }\n  }\n  if (l < j)   qsort(a,l,j);\n  if (i < r)   qsort(a,i,r);\n}\n","Corpus UUID":"c6cfa9de-7eca-4721-bef3-72dda803f155","Project Name":"maven/QSort","File Path":"jar:source.jar!default","Element Name":"QSort.qsort(int[], int, int)","Version":"1.0"}
{"Features":{"CUSource":{"Creation Context":{"OS":"Linux","javac":"javac 1.8.0_121"},"Generation Date":"2017-03-17T16:40:32+00:00","Version":"1.0","Tags":[],"Feature":{"Version":"1.0","Type":"Text","Content":"public class QSort {\n  void qsort(  int[] a,  int l,  int r){\n  }\n}\n"}},"ClassSource":{"Creation Context":{"OS":"Linux","javac":"javac 1.8.0_121"},"Generation Date":"2017-03-17T16:40:32+00:00","Version":"1.0","Tags":[],"Feature":{"Version":"1.0","Type":"Text","Content":"public class QSort {\n  void qsort(  int[] a,  int l,  int r){\n  }\n}\n"}},"Weighted NL Terms":{"Creation Context":{"OS":"Linux","javac":"javac 1.8.0_121"},"Generation Date":"2017-03-17T16:40:37+00:00","Version":"1.0","Tags":[],"Feature":{"Version":"1.0","Type":"Weighted Terms","Content":{"quick":0.5773502691896258,"partit":0.5773502691896258,"sort":0.5773502691896258}}},"Names":{"Creation Context":{"OS":"Linux","javac":"javac 1.8.0_121"},"Generation Date":"2017-03-17T16:40:32+00:00","Version":"1.0","Tags":[],"Feature":{"Version":"1.0","Type":"Bag Of Words","Content":["qsort","a","l","r"]}},"Comments":{"Creation Context":{"OS":"Linux","javac":"javac 1.8.0_121"},"Generation Date":"2017-03-17T16:40:32+00:00","Version":"1.0","Tags":[],"Feature":{"Version":"1.0","Type":"Comments","Content":[{"Start":{"Line":2,"Column":4},"End":{"Line":4,"Column":7},"Delimiter Embeded":true,"Textual Representation":"/**\n     * quick sort partition\n     */"}]}},"Skeleton":{"Creation Context":{"OS":"Linux","javac":"javac 1.8.0_121"},"Generation Date":"2017-03-17T16:40:32+00:00","Version":"1.0","Tags":[],"Feature":{"Version":"1.0","Type":"Text","Content":"()"}}},"Language":"Java","Generation Date":"2017-03-17T16:40:37+00:00","Textual Representation":"void qsort(int[] a,int l,int r){\n}\n","Corpus UUID":"c6cfa9de-7eca-4721-bef3-72dda803f155","Project Name":"maven/QSort","File Path":"jar:source.jar!default","Element Name":"QSort.qsort(int[], int, int)","Version":"1.0"}
{"Features":{"Skeleton":{"Creation Context":{"OS":"Linux","javac":"javac 1.8.0_121"},"Generation Date":"2017-03-17T16:43:02+00:00","Version":"1.0","Tags":[],"Feature":{"Version":"1.0","Type":"Text","Content":"(seq (cond ())(loop (seq (cond ()))))"}},"Names":{"Creation Context":{"OS":"Linux","javac":"javac 1.8.0_121"},"Generation Date":"2017-03-17T16:43:02+00:00","Version":"1.0","Tags":[],"Feature":{"Version":"1.0","Type":"Bag Of Words","Content":["qsort","a","swap","i","j","l","m","r"]}},"Comments":{"Creation Context":{"OS":"Linux","javac":"javac 1.8.0_121"},"Generation Date":"2017-03-17T16:43:02+00:00","Version":"1.0","Tags":[],"Feature":{"Version":"1.0","Type":"Comments","Content":[{"Start":{"Line":2,"Column":4},"End":{"Line":4,"Column":7},"Delimiter Embeded":true,"Textual Representation":"/**\n     * quick sort partition\n     */"}]}},"Weighted NL Terms":{"Creation Context":{"OS":"Linux","javac":"javac 1.8.0_121"},"Generation Date":"2017-03-17T16:43:06+00:00","Version":"1.0","Tags":[],"Feature":{"Version":"1.0","Type":"Weighted Terms","Content":{"quick":0.5773502691896258,"partit":0.5773502691896258,"sort":0.5773502691896258}}},"ClassSource":{"Creation Context":{"OS":"Linux","javac":"javac 1.8.0_121"},"Generation Date":"2017-03-17T16:43:02+00:00","Version":"1.0","Tags":[],"Feature":{"Version":"1.0","Type":"Text","Content":"public class QSort {\n  void qsort(  int[] a,  int l,  int r){\n    int j;\n    int m=l;\n    int i=0;\n    if (l >= r) {\n      return;\n    }\n    for (i=l + 1; i <= r; i++) {\n      if (a[i] < a[l]) {\n        swap(a,++m,i);\n      }\n    }\n    swap(a,l,m);\n    qsort(a,l,m - 1);\n    qsort(a,m + 1,r);\n  }\n}\n"}},"CUSource":{"Creation Context":{"OS":"Linux","javac":"javac 1.8.0_121"},"Generation Date":"2017-03-17T16:43:02+00:00","Version":"1.0","Tags":[],"Feature":{"Version":"1.0","Type":"Text","Content":"public class QSort {\n  void qsort(  int[] a,  int l,  int r){\n    int j;\n    int m=l;\n    int i=0;\n    if (l >= r) {\n      return;\n    }\n    for (i=l + 1; i <= r; i++) {\n      if (a[i] < a[l]) {\n        swap(a,++m,i);\n      }\n    }\n    swap(a,l,m);\n    qsort(a,l,m - 1);\n    qsort(a,m + 1,r);\n  }\n}\n"}}},"Language":"Java","Generation Date":"2017-03-17T16:43:06+00:00","Textual Representation":"void qsort(int[] a,int l,int r){\n  int j;\n  int m=l;\n  int i=0;\n  if (l >= r) {\n    return;\n  }\n  for (i=l + 1; i <= r; i++) {\n    if (a[i] < a[l]) {\n      swap(a,++m,i);\n    }\n  }\n  swap(a,l,m);\n  qsort(a,l,m - 1);\n  qsort(a,m + 1,r);\n}\n","Corpus UUID":"c6cfa9de-7eca-4721-bef3-72dda803f155","Project Name":"maven/QSort","File Path":"jar:source.jar!default","Element Name":"QSort.qsort(int[], int, int)","Version":"1.0"}
