Yue,sieve_draft,374,1/2,week test case
Yue,csv_draft,488,2/3,forgot semicolon
Yue,html_skeleton,791,,internet
Yue,files_skeleton,588,,internet
Binhang,sieve_skeleton,1512,,no internet
Binhang,csv_skeleton,1013,,internet
Binhang,html_draft,1261,2/5,hard test cases
Binhang,files_draft,341,1/1,
Lei,sieve_skeleton,1451,,no internet
Lei,csv_skeleton,1026,,internet
Lei,html_draft,866,2/3,hard test cases
Lei,files_draft,412,1/1,
Keliang,sieve_draft,250,1/1,
Keliang,csv_draft,593,2/3,syntax error
Keliang,html_skeleton,797,,internet
Keliang,files_skeleton,806,,internet
Letao,sieve_skeleton,1191,,"internet, long debug"
Letao,csv_skeleton,1074,,internet
Letao,html_draft,1155,2/6,"incorrect comment, syntax error"
Letao,files_draft,300,1/1,
Chiam,sieve_skeleton,377,,no internet
Chiam,csv_skeleton,1022,,no internet
Chiam,html_draft,687,2/3,hard test cases
Chiam,files_draft,175,1/1,
Shangyu,sieve_draft,547,1/1,
Shangyu,csv_draft,796,2/4,Comment error
Shangyu,files_skeleton,1327,,internet
Shangyu,html_skeleton,1422,,internet
Dupeng,sieve_draft,452,1/1,
Dupeng,csv_draft,433,2/2,
Dupeng,files_skeleton,768,,internet
Dupeng,html_skeleton,855,,internet
Lai,sieve_skeleton,370,,no internet
Lai,csv_skeleton,729,,internet
Lai,files_draft,260,1/1,
Lai,html_draft,1277,2/8,Forgot to escape a quote
Chen,sieve_draft,353,1/1,
Chen,csv_draft,462,2/2,
Chen,html_skeleton,987,,internet
Chen,files_skeleton,1398,,internet
Yilan,sieve_skeleton,613,,no internet
Yilan,csv_draft,533,2/2,
Yilan,html_draft,532,2/2,
Yilan,files_skeleton,822,,internet
Nick,sieve_draft,336,1/1,
Nick,csv_skeleton,1049,,internet
Nick,html_skeleton,1289,,internet
Nick,files_draft,407,1/1,
Xiaoran,sieve_skeleton,1296,,no internet
Xiaoran,csv_draft,1011,2/4,test error
Xiaoran,html_draft,1033,2/6,Not escaping quotes
Xiaoran,files_skeleton,1107,,internet
Tiago,sieve_draft,453,1/1,
Tiago,csv_skeleton,1651,,internet
Tiago,html_skeleton,906,,internet
Tiago,files_draft,268,1/1,
Yiting,sieve_skeleton,720,,no internet
Yiting,csv_draft,658,2/2,
Yiting,html_draft,1093,2/5,Not escaping quotes
Yiting,files_skeleton,1205,,internet
Yanxian,sieve_skeleton,331,,no internet
Yanxian,csv_draft,797,2/2,
Yanxian,html_draft,688,2/4,weak html and tests
Yanxian,files_skeleton,1288,,internet
helper1,sieve_draft,303,1/1,
helper1,csv_skeleton,550,,internet
helper1,html_skeleton,759,,internet
helper1,files_draft,272,1/1,
Jia,sieve_skeleton,795,,no internet
Jia,csv_draft,536,2/2,
Jia,html_draft,1145,2/6,not escaping quotes
Jia,files_skeleton,1796,,internet
Suguman,sieve_draft,254,1/1,
Suguman,csv_skeleton,1059,,internet
Suguman,html_skeleton,1265,,internet
Suguman,files_draft,334,1/1,
